<svg id="Layer_1" xmlns="http://www.w3.org/2000/svg"
    viewBox="0 0 106.26 190.02">
    <title>main_page_image</title>
    <path
        d="M76.73,93.52s-4.38-5.11-.27-8.36c0,0,3-1.82,5.45-1.67,0,0-3.47,5.82-2.35,6.4S83,83.13,83,83.13s6.84-.66,9,.39c0,0-5.84,4.78-4.61,5.07s7.54-4.41,7.54-4.41,6.36,1.08,6,5-2.53,5.08-3.5,5-6.6-2.26-6.72-1.47,3.27,3.37,5.65,3.49c0,0-4.49,4.95-7.47,3.52S85.61,96,83.76,95.18s-3.45-.85-2.68,0,4.13,1.71,5.19,3.59,2,3.15-1.07,2.68-8.1-2.72-8.32-5.31Z"
        transform="translate(0 0)" fill="#2a5e45" />
    <path
        d="M97.83,89.25s-17.28-.67-21.1,4.28a12.5,12.5,0,0,1-3.44,4.84l-.4,1.1s3-3.16,4.07-3.35C77,96.11,75.27,90,97.83,89.25Z"
        transform="translate(0 0)" fill="#4e846a" />
    <path
        d="M73.29,98.37a10.85,10.85,0,0,0-4,7.65l.67.06S71.14,101,73.29,99,73.29,98.37,73.29,98.37Z"
        transform="translate(0 0)" fill="#4e846a" />
    <path
        d="M61.4,87.09s7-3.91,3.72-9.2c0,0-2.6-3.25-5.39-4.09,0,0,1.49,7.9,0,8.09s-1-8.93-1-8.93-7.34-3.53-10.23-3.25c0,0,4.56,7.72,3.07,7.53s-6.6-8-6.6-8-7.53-1.39-8.74,3.07.74,6.69,1.86,7,8.27.19,8.09,1.12-5,2.42-7.72,1.58c0,0,3,7.35,6.88,7s5.11-2.79,7.53-3,4.18.46,3,1.12-5.3.21-7.25,1.87-3.53,2.68.09,3.43,10.13.28,11.44-2.51Z"
        transform="translate(0 0)" fill="#245b41" />
    <path
        d="M39.65,73.7S59.15,80,61.41,87.09a14.83,14.83,0,0,0,1.86,6.79v1.39s-2-4.74-3.16-5.39C60.1,89.88,64.47,83.75,39.65,73.7Z"
        transform="translate(0 0)" fill="#4e846a" />
    <path
        d="M63.26,93.88A12.88,12.88,0,0,1,64.55,104l-.77-.21s.75-6.13-.82-9.21S63.26,93.88,63.26,93.88Z"
        transform="translate(0 0)" fill="#4e846a" />
    <path
        d="M72.5,81.71s-9.19-5.15-4.9-12.13c0,0,3.43-4.29,7.11-5.39,0,0-2,10.42,0,10.66s1.35-11.77,1.35-11.77,9.68-4.71,13.48-4.29c0,0-6,10.17-4,9.93s8.7-10.54,8.7-10.54,9.93-1.84,11.52,4-1,8.82-2.45,9.19-10.91.24-10.66,1.47,6.62,3.19,10.17,2.08c0,0-3.92,9.68-9.07,9.19s-6.8-3.64-10-3.87-5.52.61-3.92,1.47,7,.28,9.56,2.47,4.66,3.54-.12,4.52-13.36.37-15.07-3.31Z"
        transform="translate(0 0)" fill="#84ad99" />
    <path
        d="M101.15,64.06S75.44,72.37,72.5,81.71a19.55,19.55,0,0,1-2.45,8.95v1.81s2.7-6.25,4.17-7.11C74.21,85.37,68.45,77.29,101.15,64.06Z"
        transform="translate(0 0)" fill="#4e846a" />
    <path d="M70.05,90.65A17,17,0,0,0,68.34,104l1-.27s-1-8.08,1.09-12.15S70.05,90.65,70.05,90.65Z"
        transform="translate(0 0)" fill="#4e846a" />
    <path d="M72.15,119.93a18,18,0,0,0,18-18h-36A18,18,0,0,0,72.15,119.93Z"
        transform="translate(0 0)" fill="#337357" />
    <path d="M90.44,120.84H53.95a2.22,2.22,0,0,1,2.2-2.22h32a2.22,2.22,0,0,1,2.22,2.22h.07Z"
        transform="translate(0 0)" fill="#2e2d4d" />
    <rect x="53.59" y="101.92" width="37.01" height="0.55" fill="#0f3f27" />
    <path
        d="M94.21,121.94v1.73c0,.61-.2,1.1-.43,1.1H30.72c-.24,0-.43-.49-.43-1.1v-1.73c0-.6.2-1.1.43-1.1H93.78C94,120.84,94.21,121.37,94.21,121.94Z"
        transform="translate(0 0)" fill="#6d89cf" />
    <path
        d="M94.21,121.94v1.73c0,.61-.18,1.1-.4,1.1H43.75c-.22,0-.4-.49-.4-1.1v-1.73c0-.6.18-1.1.4-1.1H93.81C94,120.84,94.21,121.37,94.21,121.94Z"
        transform="translate(0 0)" fill="#3c3c5b" />
    <rect x="33.48" y="124.77" width="44.77" height="65.25" fill="#464668" />
    <rect x="46.03" y="124.77" width="44.77" height="65.25" fill="#8f8faa" />
    <path d="M88.39,186.37h-40v-59.8h40Zm-39.52-.43H88v-59H48.87Z" transform="translate(0 0)"
        fill="#2e2d4d" />
    <rect x="48.65" y="146.39" width="39.52" height="0.43" fill="#2e2d4d" />
    <rect x="48.65" y="166.56" width="39.52" height="0.43" fill="#2e2d4d" />
    <path
        d="M72.46,130.47H65.15a.65.65,0,0,1-.65-.65h0a.65.65,0,0,1,.65-.65h7.33a.65.65,0,0,1,.65.65h0a.65.65,0,0,1-.65.65Z"
        transform="translate(0 0)" fill="#2e2d4d" />
    <path
        d="M72.46,150.19H65.15a.65.65,0,0,1-.65-.65h0a.65.65,0,0,1,.65-.65h7.33a.65.65,0,0,1,.65.65h0a.65.65,0,0,1-.65.65Z"
        transform="translate(0 0)" fill="#2e2d4d" />
    <path
        d="M72.46,170.75H65.15a.65.65,0,0,1-.65-.65h0a.65.65,0,0,1,.65-.65h7.33a.65.65,0,0,1,.65.65h0a.65.65,0,0,1-.65.65Z"
        transform="translate(0 0)" fill="#2e2d4d" />
    <path
        d="M43.4,111.9V121H34.26v-9.1a2.35,2.35,0,0,1,0-.26,2.79,2.79,0,0,1,1.69-2.31,1.85,1.85,0,0,0,1.2-1.59v-1.34h3.36v1.31a1.78,1.78,0,0,0,1.12,1.6,2.82,2.82,0,0,1,1.7,2.3A2.9,2.9,0,0,1,43.4,111.9Z"
        transform="translate(0 0)" fill="#93b3f4" />
    <polygon points="40.78 106.97 36.86 106.97 36.97 105.95 40.67 105.95 40.78 106.97"
        fill="#bed2fa" />
    <path d="M43.4,111.9v5.85H34.26v-5.88a2.35,2.35,0,0,1,0-.26h9.11A2.9,2.9,0,0,1,43.4,111.9Z"
        transform="translate(0 0)" fill="#fff" />
    <path
        d="M50.95,115.89V121H45.79v-5.09a1.33,1.33,0,0,1,0-.15,1.56,1.56,0,0,1,1-1.25,1,1,0,0,0,.65-.89v-.73h1.88v.73a1,1,0,0,0,.67.89,1.58,1.58,0,0,1,1,1.29A.39.39,0,0,0,50.95,115.89Z"
        transform="translate(0 0)" fill="#93b3f4" />
    <polygon points="49.44 113.13 47.25 113.13 47.31 112.56 49.38 112.56 49.44 113.13"
        fill="#bed2fa" />
    <path d="M50.95,115.89v3.27H45.79v-3.29a1.33,1.33,0,0,1,0-.15h5.1A1.61,1.61,0,0,1,50.95,115.89Z"
        transform="translate(0 0)" fill="#fff" />
    <path
        d="M17.9,189.59H28.42a25.4,25.4,0,0,0-.84-3.78,10.72,10.72,0,0,0-.6-1.52c-1-2-7.52-.74-7.52-.74A5,5,0,0,0,18.39,186,20.94,20.94,0,0,0,17.9,189.59Z"
        transform="translate(0 0)" fill="#232065" />
    <path
        d="M37.21,28.89s8.38,1.48,10.28,6.42,12.6,84.85,12.6,84.85-5.3,4.2-16.68,2.69S37.21,28.89,37.21,28.89Z"
        transform="translate(0 0)" fill="#09425a" />
    <path
        d="M49.69,186.27c0,1.43.21,2.79.73,3.32H71.23c-.26-.75-1-1.89-3.15-2.23-2.43-.39-6.21-1.56-8.42-3.9a6.27,6.27,0,0,1-1.63-3c-1-4.36-8.09,1.34-8.09,1.34A35.24,35.24,0,0,0,49.69,186.27Z"
        transform="translate(0 0)" fill="#232065" />
    <path
        d="M58.65,184.16c-2.33.74-6.77,3-9.59,1.94-1.82-.69-12-30.19-12.69-43.1a33,33,0,0,0-.52-3.84c-.6-3.33-1.66-7.91-2.88-13-3.26-13.53-7.68-30.46-7.58-35.87.15-8.4,25-1.76,25-1.76a89.87,89.87,0,0,1,2.05,16.84c.68,19.8,2.53,53.24,7.58,76.46A2,2,0,0,1,58.65,184.16Z"
        transform="translate(0 0)" fill="#434c4a" />
    <path
        d="M41.39,90.37l-13.15,95.3S22.46,187.06,18,186c0,0-3.85-50.7-3.53-63s-2.76-32.79.7-35.06S41.39,90.37,41.39,90.37Z"
        transform="translate(0 0)" fill="#5b5b5b" />
    <path
        d="M38,28.66S52,34.39,53.89,38.8s8.05,31.46,8.05,34.64S51.22,74.15,49.49,69c-1.43-4.25-6.27-17.3-8.82-25.56Z"
        transform="translate(0 0)" fill="#2a7fba" />
    <path
        d="M35.09,33a15.74,15.74,0,0,1-10.83-2.2,31.16,31.16,0,0,0,2.31-8.15v-.31a8.32,8.32,0,0,0,0-1.87h7.9s2.16,1,2.16,1.67v1c0,.91,0,1.7.1,2.38a21.64,21.64,0,0,0,.4,3.26S38.15,32.43,35.09,33Z"
        transform="translate(0 0)" fill="#fc9290" />
    <path
        d="M36.81,25.63a10.91,10.91,0,0,1-10.23-3l-.17-.19.2-.09c2.23-.9,7.28-.18,10.1.85C36.73,24.16,36.76,25,36.81,25.63Z"
        transform="translate(0 0)" fill="#ea8888" />
    <path
        d="M24.62,19.23c1.07,5.75,8.49,5.56,11.7,5.2.9-.1,1.47-.22,1.47-.22,1-.27,1.59-1.88,1.85-4C40.16,16,39.5,9.95,38.8,8.39,37.74,6,35.8,3.5,28.28,5.33S23.25,11.86,24.62,19.23Z"
        transform="translate(0 0)" fill="#fc9290" />
    <path
        d="M39.08,5.21A17.09,17.09,0,0,0,33.92,1c-4.23-2.29-9.64.07-9.66.08-6.11,2.68-7.7,7.36-4.46,14.64,3.42,7.7,6.68,6.83,6.68,6.83s-.69-.43-.63-2.83v-.35a1.61,1.61,0,0,0-.51-1.31c-.76-.69-1.13-2.69-.49-3.29s1.84.15,2.19.79a.94.94,0,0,0,1.29.33h.05c1.9-1.2.67-3.6,2.48-5.08s5.5-.24,8.23-1.41C42.67,8,39.85,6.28,39.08,5.21Z"
        transform="translate(0 0)" fill="#232065" />
    <path
        d="M39.93,126.06q-1.81.46-3.58.76c-1,.18-2.09.31-3.13.4-5.91.51-11.86-.32-18.8-2.31q-2.35-.67-4.86-1.52C9.38,123.33,10,105,10.75,86c.07-2,.15-3.92.23-5.87q0-1.24.1-2.47c.66-16.75,1.32-31.88,1.46-32.7.32-1.84.61-3.41.94-4.78,1-4,2.12-6.15,4.68-8,.25-.19,2.3-1.22,4.1-2.12l2.83-1.39h0c.6.29,1.31,1.66,2.06,3.57a129.2,129.2,0,0,1,3.89,13h0c.66,2.61,1.14,4.64,1.28,5.22.23,1,.54,2.89.89,5.47.49,3.51,1.07,8.28,1.68,13.7l.19,1.69.22,2a2,2,0,0,0,.07.64c.24,2.14.48,4.36.71,6.6.2,1.86,3,3.2,3.21,5.09.11,1.11.35,11.35.65,14.62C40.15,102.6,40,125,39.93,126.06Z"
        transform="translate(0 0)" fill="#2a7fba" />
    <path
        d="M19.53,51.75s-.48,16.94,12.23,19S36,73.35,36,73.35s-23.88-1-24.32-1.65S19.53,51.75,19.53,51.75Z"
        transform="translate(0 0)" fill="#0e5177" />
    <path
        d="M30.28,78l-.7.46h0A59.7,59.7,0,0,1,13.5,85.37q-1.32.36-2.73.67c.07-2,.15-3.92.23-5.87a24.56,24.56,0,0,1-3.15-.44L8,79c1.07-.44,2.13-.86,3.15-1.26l2.4-.92c3.44-1.31,6-2.19,6-2.19l10.19,3.23Z"
        transform="translate(0 0)" fill="#0e5177" />
    <path
        d="M33,77.71s-1.31.33-3.39.75h0a83.5,83.5,0,0,1-16.08,1.8,18.71,18.71,0,0,1-2.5-.11,24.56,24.56,0,0,1-3.15-.44,9.8,9.8,0,0,1-5-2.38c-8.59-8.75,4.69-40.14,7.48-43.19,3.26-3.57,9.2-4.82,12.49-5.25l.4-.05c1.15-.14,1.9-.17,1.94-.17h0l-.69,2.23-.57,1.88c-2,6.61-5.91,19.59-7.62,26.91-.63,2.68-1,4.6-.81,5.17.67,2.5,7.61,3.79,12,4.35,1.83.24,3.23.35,3.54.37h.06l.25,1,.61,2.5.6,2.46Z"
        transform="translate(0 0)" fill="#2a7fba" />
    <polygon points="56.92 92.76 27.43 91.51 33.41 54.76 62.91 56 56.92 92.76" fill="#232065" />
    <path d="M31,69.6s5.74-.4,6,.94c.67,3.12-4.94,5.68-6.75,5.51S29.68,69.37,31,69.6Z"
        transform="translate(0 0)" fill="#fc9290" />
    <path
        d="M61.29,63.47S55.8,61.75,55.21,63c-1.37,2.88,3.49,6.67,5.3,6.92S62.63,63.57,61.29,63.47Z"
        transform="translate(0 0)" fill="#fc9290" />
    <path d="M25.69,26.84a10.72,10.72,0,0,0-3.63,2.89s9,15.67,9,15.53S28,28.85,25.69,26.84Z"
        transform="translate(0 0)" fill="#0e5177" />
    <path
        d="M36.93,27.06a6.89,6.89,0,0,1,2.66,2.73l1.07,13.68s-2.29-10-3.46-14.58A7.69,7.69,0,0,1,36.93,27.06Z"
        transform="translate(0 0)" fill="#0e5177" />
    <path d="M43.15,55.16a1.34,1.34,0,0,1,1.58-.9c1.34.12,8.88.49,8.88.49s1.45,0,1.32.91Z"
        transform="translate(0 0)" fill="#2e2d4d" />
    <path
        d="M34.54,20.53a3.15,3.15,0,0,0,2.56.62c.94-.16,1.46-1.38,1.46-1.38A7.07,7.07,0,0,0,34.54,20.53Z"
        transform="translate(0 0)" fill="#fff" />
</svg>